tb_wrr.vcd
$date
	Sun Jun 14 20:28:55 2026
$end
$version
	Icarus Verilog
$end
$timescale
	1s
$end
$scope module tb_wrr_arbiter $end
$var wire 2 ! grant [1:0] $end
$var reg 1 " arb_advance $end
$var reg 1 # clk $end
$var reg 1 $ req0 $end
$var reg 1 % req1 $end
$var reg 1 & req2 $end
$var reg 1 ' rst_n $end
$var integer 32 ( cnt0 [31:0] $end
$var integer 32 ) cnt1 [31:0] $end
$var integer 32 * cnt2 [31:0] $end
$scope module dut $end
$var wire 1 " arb_advance $end
$var wire 1 # clk $end
$var wire 1 $ req0 $end
$var wire 1 % req1 $end
$var wire 1 & req2 $end
$var wire 1 ' rst_n $end
$var reg 4 + c0 [3:0] $end
$var reg 4 , c1 [3:0] $end
$var reg 4 - c2 [3:0] $end
$var reg 4 . credit0 [3:0] $end
$var reg 4 / credit1 [3:0] $end
$var reg 4 0 credit2 [3:0] $end
$var reg 2 1 grant [1:0] $end
$var reg 2 2 last_grant [1:0] $end
$var reg 2 3 next_grant [1:0] $end
$upscope $end
$upscope $end
$enddefinitions $end
#0
$dumpvars
b11 3
b11 2
b11 1
b100 0
b10 /
b1 .
b100 -
b10 ,
b1 +
b0 *
b0 )
b0 (
0'
0&
0%
0$
0#
0"
b11 !
$end
#5
1#
#10
0#
#15
1#
#20
0#
#25
1'
1#
#30
0#
#35
1#
#40
0#
#45
b0 3
1&
1%
1$
1#
#50
0#
#55
b0 +
b1 3
b0 .
b0 2
b0 !
b0 1
1"
1#
#60
0#
#65
b1 (
0"
1#
#70
0#
#75
b1 ,
b10 3
b1 /
b1 2
b1 !
b1 1
1"
1#
#80
0#
#85
b1 )
0"
1#
#90
0#
#95
b11 -
b1 3
b11 0
b10 2
b10 !
b10 1
1"
1#
#100
0#
#105
b1 *
0"
1#
#110
0#
#115
b0 ,
b10 3
b0 /
b1 2
b1 !
b1 1
1"
1#
#120
0#
#125
b10 )
0"
1#
#130
0#
#135
b10 -
b10 3
b10 0
b10 2
b10 !
b10 1
1"
1#
#140
0#
#145
b10 *
0"
1#
#150
0#
#155
b10 3
b1 -
b1 0
1"
1#
#160
0#
#165
b11 *
0"
1#
#170
0#
#175
b0 3
b100 -
b100 ,
b10 +
b0 0
1"
1#
#180
0#
#185
b100 *
0"
1#
#190
0#
#195
b1 +
b1 3
b100 0
b100 /
b1 .
b0 2
b0 !
b0 1
1"
1#
#200
0#
#205
b10 (
0"
1#
#210
0#
#215
b11 ,
b10 3
b11 /
b1 2
b1 !
b1 1
1"
1#
#220
0#
#225
b11 )
0"
1#
#230
0#
#235
b11 -
b0 3
b11 0
b10 2
b10 !
b10 1
1"
1#
#240
0#
#245
b101 *
0"
1#
#250
0#
#255
b0 +
b1 3
b0 .
b0 2
b0 !
b0 1
1"
1#
#260
0#
#265
b11 (
0"
1#
#270
0#
#275
b10 ,
b10 3
b10 /
b1 2
b1 !
b1 1
1"
1#
#280
0#
#285
b100 )
0"
1#
#290
0#
#295
b10 -
b1 3
b10 0
b10 2
b10 !
b10 1
1"
1#
#300
0#
#305
b110 *
0"
1#
#310
0#
#315
b1 ,
b10 3
b1 /
b1 2
b1 !
b1 1
1"
1#
#320
0#
#325
b101 )
0"
1#
#330
0#
#335
b1 -
b1 3
b1 0
b10 2
b10 !
b10 1
1"
1#
#340
0#
#345
b111 *
0"
1#
#350
0#
#355
b0 ,
b10 3
b0 /
b1 2
b1 !
b1 1
1"
1#
#360
0#
#365
b110 )
0"
1#
#370
0#
#375
b100 -
b100 ,
b10 +
b0 3
b0 0
b10 2
b10 !
b10 1
1"
1#
#380
0#
#385
b1000 *
0"
1#
#390
0#
#395
b1 +
b1 3
b100 0
b100 /
b1 .
b0 2
b0 !
b0 1
1"
1#
#400
0#
#405
b100 (
0"
1#
#410
0#
#415
b11 ,
b10 3
b11 /
b1 2
b1 !
b1 1
1"
1#
#420
0#
#425
b111 )
0"
1#
#430
0#
#435
b11 -
b0 3
b11 0
b10 2
b10 !
b10 1
1"
1#
#440
0#
#445
b1001 *
0"
1#
#450
0#
#455
b0 +
b1 3
b0 .
b0 2
b0 !
b0 1
1"
1#
#460
0#
#465
b101 (
0"
1#
#470
0#
#475
b10 ,
b10 3
b10 /
b1 2
b1 !
b1 1
1"
1#
#480
0#
#485
b1000 )
0"
1#
#490
0#
#495
b10 -
b1 3
b10 0
b10 2
b10 !
b10 1
1"
1#
#500
0#
#505
b1010 *
0"
1#
#510
0#
#515
b1 ,
b10 3
b1 /
b1 2
b1 !
b1 1
1"
1#
#520
0#
#525
b1001 )
0"
1#
#530
0#
#535
b1 -
b1 3
b1 0
b10 2
b10 !
b10 1
1"
1#
#540
0#
#545
b1011 *
0"
1#
#550
0#
#555
b0 ,
b10 3
b0 /
b1 2
b1 !
b1 1
1"
1#
#560
0#
#565
b1010 )
0"
1#
#570
0#
#575
b100 -
b100 ,
b10 +
b0 3
b0 0
b10 2
b10 !
b10 1
1"
1#
#580
0#
#585
b1100 *
0"
1#
#590
0#
#595
b1 +
b1 3
b100 0
b100 /
b1 .
b0 2
b0 !
b0 1
1"
1#
#600
0#
#605
b110 (
0"
1#
#610
0#
#615
b11 ,
b10 3
b11 /
b1 2
b1 !
b1 1
1"
1#
#620
0#
#625
b1011 )
0"
1#
#630
0#
#635
b11 -
b0 3
b11 0
b10 2
b10 !
b10 1
1"
1#
#640
0#
#645
b1101 *
0"
1#
#650
0#
#655
b0 +
b1 3
b0 .
b0 2
b0 !
b0 1
1"
1#
#660
0#
#665
b111 (
0"
1#
#670
0#
#675
b10 ,
b10 3
b10 /
b1 2
b1 !
b1 1
1"
1#
#680
0#
#685
b1100 )
0"
1#
#690
0#
#695
b10 -
b1 3
b10 0
b10 2
b10 !
b10 1
1"
1#
#700
0#
#705
b1110 *
0"
1#
#710
0#
#715
b1 ,
b10 3
b1 /
b1 2
b1 !
b1 1
1"
1#
#720
0#
#725
b1101 )
0"
1#
#730
0#
#735
b1 -
b1 3
b1 0
b10 2
b10 !
b10 1
1"
1#
#740
0#
#745
b1111 *
0"
1#
#750
0#
#755
b0 ,
b10 3
b0 /
b1 2
b1 !
b1 1
1"
1#
#760
0#
#765
b1110 )
0"
1#
#770
0#
#775
b100 -
b100 ,
b10 +
b0 3
b0 0
b10 2
b10 !
b10 1
1"
1#
#780
0#
#785
b10000 *
0"
1#
#790
0#
#795
b1 +
b1 3
b100 0
b100 /
b1 .
b0 2
b0 !
b0 1
1"
1#
#800
0#
#805
b1000 (
0"
1#
#810
0#
#815
b11 ,
b10 3
b11 /
b1 2
b1 !
b1 1
1"
1#
#820
0#
#825
b1111 )
0"
1#
#830
0#
#835
b11 -
b0 3
b11 0
b10 2
b10 !
b10 1
1"
1#
#840
0#
#845
b10001 *
0"
1#
#850
0#
#855
b0 +
b1 3
b0 .
b0 2
b0 !
b0 1
1"
1#
#860
0#
#865
b1001 (
0"
1#
#870
0#
#875
b10 ,
b10 3
b10 /
b1 2
b1 !
b1 1
1"
1#
#880
0#
#885
b10000 )
0"
1#
#890
0#
#895
b10 -
b1 3
b10 0
b10 2
b10 !
b10 1
1"
1#
#900
0#
#905
b10010 *
0"
1#
#910
0#
#915
b1 ,
b10 3
b1 /
b1 2
b1 !
b1 1
1"
1#
#920
0#
#925
b10001 )
0"
1#
#930
0#
#935
b1 -
b1 3
b1 0
b10 2
b10 !
b10 1
1"
1#
#940
0#
#945
b10011 *
0"
1#
#950
0#
#955
b0 ,
b10 3
b0 /
b1 2
b1 !
b1 1
1"
1#
#960
0#
#965
b10010 )
0"
1#
#970
0#
#975
b100 -
b100 ,
b10 +
b0 3
b0 0
b10 2
b10 !
b10 1
1"
1#
#980
0#
#985
b10100 *
0"
1#
#990
0#
#995
b1 +
b1 3
b100 0
b100 /
b1 .
b0 2
b0 !
b0 1
1"
1#
#1000
0#
#1005
b1010 (
0"
1#
#1010
0#
#1015
b11 ,
b10 3
b11 /
b1 2
b1 !
b1 1
1"
1#
#1020
0#
#1025
b10011 )
0"
1#
#1030
0#
#1035
b11 -
b0 3
b11 0
b10 2
b10 !
b10 1
1"
1#
#1040
0#
#1045
b10101 *
0"
1#
#1050
0#
#1055
b0 +
b1 3
b0 .
b0 2
b0 !
b0 1
1"
1#
#1060
0#
#1065
b1011 (
0"
1#
#1070
0#
#1075
b10 ,
b10 3
b10 /
b1 2
b1 !
b1 1
1"
1#
#1080
0#
#1085
b10100 )
0"
1#
#1090
0#
#1095
b10 -
b1 3
b10 0
b10 2
b10 !
b10 1
1"
1#
#1100
0#
#1105
b10110 *
0"
1#
#1110
0#
#1115
b1 ,
b10 3
b1 /
b1 2
b1 !
b1 1
1"
1#
#1120
0#
#1125
b10101 )
0"
1#
#1130
0#
#1135
b1 -
b1 3
b1 0
b10 2
b10 !
b10 1
1"
1#
#1140
0#
#1145
b10111 *
0"
1#
#1150
0#
#1155
b0 ,
b10 3
b0 /
b1 2
b1 !
b1 1
1"
1#
#1160
0#
#1165
b10110 )
0"
1#
#1170
0#
#1175
b100 -
b100 ,
b10 +
b0 3
b0 0
b10 2
b10 !
b10 1
1"
1#
#1180
0#
#1185
b11000 *
0"
1#
#1190
0#
#1195
b1 +
b1 3
b100 0
b100 /
b1 .
b0 2
b0 !
b0 1
1"
1#
#1200
0#
#1205
b1100 (
0"
1#
#1210
0#
#1215
b11 ,
b10 3
b11 /
b1 2
b1 !
b1 1
1"
1#
#1220
0#
#1225
b10111 )
0"
1#
#1230
0#
#1235
b11 -
b0 3
b11 0
b10 2
b10 !
b10 1
1"
1#
#1240
0#
#1245
b11001 *
0"
1#
#1250
0#
#1255
b0 +
b1 3
b0 .
b0 2
b0 !
b0 1
1"
1#
#1260
0#
#1265
b1101 (
0"
1#
#1270
0#
#1275
b10 ,
b10 3
b10 /
b1 2
b1 !
b1 1
1"
1#
#1280
0#
#1285
b11000 )
0"
1#
#1290
0#
#1295
b10 -
b1 3
b10 0
b10 2
b10 !
b10 1
1"
1#
#1300
0#
#1305
b11010 *
0"
1#
#1310
0#
#1315
b1 ,
b10 3
b1 /
b1 2
b1 !
b1 1
1"
1#
#1320
0#
#1325
b11001 )
0"
1#
#1330
0#
#1335
b1 -
b1 3
b1 0
b10 2
b10 !
b10 1
1"
1#
#1340
0#
#1345
b11011 *
0"
1#
#1350
0#
#1355
b0 ,
b10 3
b0 /
b1 2
b1 !
b1 1
1"
1#
#1360
0#
#1365
b11010 )
0"
1#
#1370
0#
#1375
b100 -
b100 ,
b10 +
b0 3
b0 0
b10 2
b10 !
b10 1
1"
1#
#1380
0#
#1385
b11100 *
0"
1#
#1390
0#
#1395
b1 +
b1 3
b100 0
b100 /
b1 .
b0 2
b0 !
b0 1
1"
1#
#1400
0#
#1405
b1110 (
0"
1#
#1410
0#
#1415
b11 ,
b10 3
b11 /
b1 2
b1 !
b1 1
1"
1#
#1420
0#
#1425
b11011 )
0"
1#
#1430
0#
#1435
b11 -
b0 3
b11 0
b10 2
b10 !
b10 1
1"
1#
#1440
0#
#1445
b0 )
b0 (
b0 *
0"
1#
#1450
0#
#1455
b0 +
b1 3
b0 .
b0 2
b0 !
b0 1
1"
1#
#1460
0#
#1465
0"
1#
#1470
0#
#1475
1#
#1480
0#
#1485
1#
#1490
0#
#1495
1#
#1500
0#
#1505
1#
#1510
0#
#1515
b10 ,
b10 /
b1 2
b1 !
b1 1
b11 3
1"
0&
0%
0$
1#
#1520
0#
#1525
0"
1#
#1530
0#
#1535
1$
1#
#1540
0#
#1545
b0 3
b100 -
b1 +
b100 0
b1 .
b11 !
b11 1
1"
1#
#1550
0#
#1555
0"
1#
#1560
0#
#1565
b0 +
b11 3
b0 .
b0 2
b0 !
b0 1
1"
1#
#1570
0#
#1575
b1 (
0"
1#
#1580
0#
#1585
b0 3
b1 +
b1 .
b11 !
b11 1
1"
1#
#1590
0#
#1595
0"
1#
#1600
0#
#1605
b11 3
b0 +
b0 .
b0 !
b0 1
1"
1#
#1610
0#
#1615
b10 (
0"
1#
#1620
0#
#1625
b0 3
b1 +
b1 .
b11 !
b11 1
1"
1#
#1630
0#
#1635
0"
1#
#1640
0#
#1645
b11 3
b0 +
b0 .
b0 !
b0 1
1"
1#
#1650
0#
#1655
b11 (
0"
1#
#1660
0#
#1665
b0 3
b1 +
b1 .
b11 !
b11 1
1"
1#
#1670
0#
#1675
0"
1#
#1680
0#
#1685
b11 3
b0 +
b0 .
b0 !
b0 1
1"
1#
#1690
0#
#1695
b100 (
0"
1#
#1700
0#
#1705
b0 3
b1 +
b1 .
b11 !
b11 1
1"
1#
#1710
0#
#1715
0"
1#
#1720
0#
#1725
b11 3
b0 +
b0 .
b0 !
b0 1
1"
1#
#1730
0#
#1735
b1 +
b11 2
b11 !
b11 1
b1 .
b0 3
0'
1&
1%
b101 (
0"
1#
#1740
0#
#1745
1'
1#
#1750
0#
#1755
b0 +
b1 3
b0 .
b0 2
b0 !
b0 1
1"
1#
#1760
0#
#1765
0"
1#
#1770
0#
#1775
b1 ,
b10 3
b1 /
b1 2
b1 !
b1 1
1"
1#
#1780
0#
#1785
0"
1#
#1790
0#
#1795
b11 -
b1 3
b11 0
b10 2
b10 !
b10 1
1"
1#
#1800
0#
#1805
0"
1#
#1810
0#
#1815
b0 ,
b10 3
b0 /
b1 2
b1 !
b1 1
1"
1#
#1820
0#
#1825
0"
1#
#1830
0#
#1835
b10 -
b10 3
b10 0
b10 2
b10 !
b10 1
1"
1#
#1840
0#
#1845
0"
1#
#1850
0#
#1855
b10 3
b1 -
b1 0
1"
1#
#1860
0#
#1865
0"
1#
#1870
0#
#1875
b0 3
b100 -
b100 ,
b10 +
b0 0
1"
1#
#1880
0#
#1885
0"
1#
