sim/arbiter.vcd
$date
	Sun Jun  7 20:05:40 2026
$end
$version
	Icarus Verilog
$end
$timescale
	1s
$end
$scope module tb_wrr_arbiter $end
$var wire 1 ! grant2 $end
$var wire 1 " grant1 $end
$var wire 1 # grant0 $end
$var reg 1 $ clk $end
$var reg 1 % req0 $end
$var reg 1 & req1 $end
$var reg 1 ' req2 $end
$var reg 1 ( rst_n $end
$var integer 32 ) g0_count [31:0] $end
$var integer 32 * g1_count [31:0] $end
$var integer 32 + g2_count [31:0] $end
$scope module dut $end
$var wire 1 $ clk $end
$var wire 1 % req0 $end
$var wire 1 & req1 $end
$var wire 1 ' req2 $end
$var wire 1 ( rst_n $end
$var reg 1 , credit0 $end
$var reg 2 - credit1 [1:0] $end
$var reg 3 . credit2 [2:0] $end
$var reg 1 # grant0 $end
$var reg 1 " grant1 $end
$var reg 1 ! grant2 $end
$upscope $end
$upscope $end
$enddefinitions $end
#0
$dumpvars
b100 .
b10 -
1,
b0 +
b0 *
b0 )
0(
0'
0&
0%
0$
0#
0"
0!
$end
#5
1$
#10
0$
#15
1$
#20
0$
1(
#25
1$
#30
0$
#35
1$
#40
0$
1'
1&
1%
#45
b11 .
1!
1$
#50
0$
#55
b10 .
b1 +
1$
#60
0$
#65
b1 .
b10 +
1$
#70
0$
#75
b0 .
b11 +
1$
#80
0$
#85
b1 -
0!
1"
b100 +
1$
#90
0$
#95
b0 -
b1 *
1$
#100
0$
#105
0,
0"
1#
b10 *
1$
#110
0$
#115
b100 .
b10 -
1,
0#
b1 )
1$
#120
0$
#125
b11 .
1!
1$
#130
0$
#135
b10 .
b101 +
1$
#140
0$
#145
b1 .
b110 +
1$
#150
0$
#155
b0 .
b111 +
1$
#160
0$
#165
b1 -
0!
1"
b1000 +
1$
#170
0$
#175
b0 -
b11 *
1$
#180
0$
#185
0,
0"
1#
b100 *
1$
#190
0$
#195
b100 .
b10 -
1,
0#
b10 )
1$
#200
0$
#205
b11 .
1!
1$
#210
0$
#215
b10 .
b1001 +
1$
#220
0$
#225
b1 .
b1010 +
1$
#230
0$
#235
b0 .
b1011 +
1$
#240
0$
#245
b1 -
0!
1"
b1100 +
1$
#250
0$
#255
b0 -
b101 *
1$
#260
0$
#265
0,
0"
1#
b110 *
1$
#270
0$
#275
b100 .
b10 -
1,
0#
b11 )
1$
#280
0$
#285
b11 .
1!
1$
#290
0$
#295
b10 .
b1101 +
1$
#300
0$
#305
b1 .
b1110 +
1$
#310
0$
#315
b0 .
b1111 +
1$
#320
0$
#325
b1 -
0!
1"
b10000 +
1$
#330
0$
#335
b0 -
b111 *
1$
#340
0$
#345
0,
0"
1#
b1000 *
1$
#350
0$
#355
b100 .
b10 -
1,
0#
b100 )
1$
#360
0$
#365
b11 .
1!
1$
#370
0$
#375
b10 .
b10001 +
1$
#380
0$
#385
b1 .
b10010 +
1$
#390
0$
#395
b0 .
b10011 +
1$
#400
0$
#405
b1 -
0!
1"
b10100 +
1$
#410
0$
#415
b0 -
b1001 *
1$
#420
0$
#425
0,
0"
1#
b1010 *
1$
#430
0$
#435
b100 .
b10 -
1,
0#
b101 )
1$
#440
0$
#445
b11 .
1!
1$
#450
0$
#455
b10 .
b10101 +
1$
#460
0$
#465
b1 .
b10110 +
1$
#470
0$
#475
b0 .
b10111 +
1$
#480
0$
#485
b1 -
0!
1"
b11000 +
1$
#490
0$
#495
b0 -
b1011 *
1$
#500
0$
#505
0,
0"
1#
b1100 *
1$
#510
0$
#515
b100 .
b10 -
1,
0#
b110 )
1$
#520
0$
#525
b11 .
1!
1$
#530
0$
#535
b10 .
b11001 +
1$
#540
0$
#545
b1 .
b11010 +
1$
#550
0$
#555
b0 .
b11011 +
1$
#560
0$
#565
b1 -
0!
1"
b11100 +
1$
#570
0$
#575
b0 -
b1101 *
1$
#580
0$
#585
0,
0"
1#
b1110 *
1$
#590
0$
#595
b100 .
b10 -
1,
0#
b111 )
1$
#600
0$
#605
b11 .
1!
1$
#610
0$
#615
b10 .
b11101 +
1$
#620
0$
#625
b1 .
b11110 +
1$
#630
0$
#635
b0 .
b11111 +
1$
#640
0$
#645
b1 -
0!
1"
b100000 +
1$
#650
0$
#655
b0 -
b1111 *
1$
#660
0$
#665
0,
0"
1#
b10000 *
1$
#670
0$
#675
b100 .
b10 -
1,
0#
b1000 )
1$
#680
0$
#685
b11 .
1!
1$
#690
0$
#695
b10 .
b100001 +
1$
#700
0$
#705
b1 .
b100010 +
1$
#710
0$
#715
b0 .
b100011 +
1$
#720
0$
#725
b1 -
0!
1"
b100100 +
1$
#730
0$
#735
b100 .
b10 -
0"
0'
0&
0%
b10001 *
1$
#740
0$
#745
1$
#750
0$
#755
1$
b0 +
b0 *
b0 )
#760
0$
#765
b1 -
1"
1$
1%
1&
#770
0$
#775
b0 -
b1 *
1$
#780
0$
#785
0,
0"
1#
b10 *
1$
#790
0$
#795
b10 -
1,
0#
b1 )
1$
#800
0$
#805
b1 -
1"
1$
#810
0$
#815
b0 -
b11 *
1$
#820
0$
#825
0,
0"
1#
b100 *
1$
#830
0$
#835
b10 -
1,
0#
b10 )
1$
#840
0$
#845
b1 -
1"
1$
#850
0$
#855
b0 -
b101 *
1$
#860
0$
#865
0,
0"
1#
b110 *
1$
#870
0$
#875
b10 -
1,
0#
b11 )
1$
#880
0$
#885
b1 -
1"
1$
#890
0$
#895
b0 -
b111 *
1$
#900
0$
#905
0,
0"
1#
b1000 *
1$
#910
0$
#915
b10 -
1,
0#
b100 )
1$
#920
0$
#925
b1 -
1"
1$
#930
0$
#935
b0 -
b1001 *
1$
#940
0$
#945
0,
0"
1#
b1010 *
1$
#950
0$
#955
b10 -
1,
0#
b101 )
1$
#960
0$
#965
b1 -
1"
1$
#970
0$
#975
b0 -
b1011 *
1$
#980
0$
#985
0,
0"
1#
b1100 *
1$
#990
0$
#995
b10 -
1,
0#
b110 )
1$
#1000
0$
#1005
b1 -
1"
1$
#1010
0$
#1015
b0 -
b1101 *
1$
#1020
0$
#1025
0,
0"
1#
b1110 *
1$
#1030
0$
#1035
b10 -
1,
0#
b111 )
1$
#1040
0$
#1045
b1 -
1"
1$
#1050
0$
#1055
b0 -
b1111 *
1$
#1060
0$
#1065
0,
0"
1#
b10000 *
1$
#1070
0$
#1075
b10 -
1,
0#
b1000 )
1$
#1080
0$
#1085
b1 -
1"
1$
#1090
0$
#1095
b0 -
b10001 *
1$
#1100
0$
#1105
0,
0"
1#
b10010 *
1$
#1110
0$
#1115
b10 -
1,
0#
b1001 )
1$
#1120
0$
#1125
b1 -
1"
1$
#1130
0$
#1135
b0 -
b10011 *
1$
#1140
0$
#1145
0,
0"
1#
b10100 *
1$
#1150
0$
#1155
b10 -
1,
0#
b1010 )
1$
#1160
0$
#1165
b1 -
1"
1$
#1170
0$
#1175
b0 -
b10101 *
1$
#1180
0$
#1185
0,
0"
1#
b10110 *
1$
#1190
0$
#1195
b10 -
1,
0#
b1011 )
1$
#1200
0$
#1205
b1 -
1"
1$
#1210
0$
#1215
b0 -
b10111 *
1$
#1220
0$
#1225
0,
0"
1#
b11000 *
1$
#1230
0$
#1235
b10 -
1,
0#
b1100 )
1$
#1240
0$
#1245
b1 -
1"
1$
#1250
0$
#1255
b0 -
b11001 *
1$
#1260
0$
#1265
0,
0"
1#
b11010 *
1$
#1270
0$
#1275
b10 -
1,
0#
b1101 )
1$
#1280
0$
#1285
b1 -
1"
1$
#1290
0$
#1295
b0 -
b11011 *
1$
#1300
0$
#1305
0,
0"
1#
b11100 *
1$
#1310
0$
#1315
b10 -
1,
0#
b1110 )
1$
#1320
0$
#1325
b1 -
1"
1$
#1330
0$
#1335
b0 -
b11101 *
1$
#1340
0$
#1345
0,
0"
1#
b11110 *
1$
#1350
0$
#1355
b10 -
1,
0#
0&
0%
b1111 )
1$
#1360
0$
#1365
1$
#1370
0$
#1375
1$
b0 *
b0 )
#1380
0$
#1385
b11 .
1!
1$
1'
#1390
0$
#1395
b10 .
b1 +
1$
#1400
0$
#1405
b1 .
b10 +
1$
#1410
0$
#1415
b0 .
b11 +
1$
#1420
0$
#1425
b100 .
0!
b100 +
1$
#1430
0$
#1435
b11 .
1!
1$
#1440
0$
#1445
b10 .
b101 +
1$
#1450
0$
#1455
b1 .
b110 +
1$
#1460
0$
#1465
b0 .
b111 +
1$
#1470
0$
#1475
b100 .
0!
b1000 +
1$
#1480
0$
#1485
b11 .
1!
1$
#1490
0$
#1495
b10 .
b1001 +
1$
#1500
0$
#1505
b1 .
b1010 +
1$
#1510
0$
#1515
b0 .
b1011 +
1$
#1520
0$
#1525
b100 .
0!
b1100 +
1$
#1530
0$
#1535
b11 .
1!
1$
#1540
0$
#1545
b10 .
b1101 +
1$
#1550
0$
#1555
b1 .
b1110 +
1$
#1560
0$
#1565
b0 .
b1111 +
1$
#1570
0$
#1575
b100 .
0!
b10000 +
1$
#1580
0$
#1585
b11 .
1!
1$
#1590
0$
#1595
b10 .
b10001 +
1$
#1600
0$
#1605
b1 .
b10010 +
1$
#1610
0$
#1615
b0 .
b10011 +
1$
#1620
0$
#1625
b100 .
0!
b10100 +
1$
#1630
0$
#1635
b11 .
1!
1$
#1640
0$
#1645
b10 .
b10101 +
1$
#1650
0$
#1655
b1 .
b10110 +
1$
#1660
0$
#1665
b0 .
b10111 +
1$
#1670
0$
#1675
b100 .
0!
b11000 +
1$
#1680
0$
#1685
b11 .
1!
1$
#1690
0$
#1695
b10 .
b11001 +
1$
#1700
0$
#1705
b1 .
b11010 +
1$
#1710
0$
#1715
b0 .
b11011 +
1$
#1720
0$
#1725
b100 .
0!
b11100 +
1$
#1730
0$
#1735
b11 .
1!
1$
#1740
0$
#1745
b10 .
b11101 +
1$
#1750
0$
#1755
b1 .
b11110 +
1$
#1760
0$
#1765
b0 .
b11111 +
1$
#1770
0$
#1775
b100 .
0!
b100000 +
1$
#1780
0$
#1785
b11 .
1!
1$
#1790
0$
#1795
b10 .
b100001 +
1$
#1800
0$
#1805
b1 .
b100010 +
1$
#1810
0$
#1815
b0 .
b100011 +
1$
#1820
0$
#1825
b100 .
0!
b100100 +
1$
#1830
0$
#1835
b11 .
1!
1$
#1840
0$
#1845
b10 .
b100101 +
1$
#1850
0$
#1855
b1 .
b100110 +
1$
#1860
0$
#1865
b0 .
b100111 +
1$
#1870
0$
#1875
b100 .
0!
b101000 +
1$
#1880
0$
#1885
b11 .
1!
1$
#1890
0$
#1895
b10 .
b101001 +
1$
#1900
0$
#1905
b1 .
b101010 +
1$
#1910
0$
#1915
b0 .
b101011 +
1$
#1920
0$
#1925
b100 .
0!
b101100 +
1$
#1930
0$
#1935
b11 .
1!
1$
#1940
0$
#1945
b10 .
b101101 +
1$
#1950
0$
#1955
b1 .
b101110 +
1$
#1960
0$
#1965
b0 .
b101111 +
1$
#1970
0$
#1975
b100 .
0!
b110000 +
1$
#1980
0$
#1985
b11 .
1!
1$
#1990
0$
#1995
b10 .
b110001 +
1$
#2000
0$
#2005
b1 .
b110010 +
1$
#2010
0$
#2015
b0 .
b110011 +
1$
#2020
0$
#2025
b100 .
0!
b110100 +
1$
#2030
0$
#2035
b11 .
1!
1$
#2040
0$
#2045
b10 .
b110101 +
1$
#2050
0$
#2055
b1 .
b110110 +
1$
#2060
0$
#2065
b0 .
b110111 +
1$
#2070
0$
#2075
b100 .
0!
b111000 +
1$
#2080
0$
#2085
b11 .
1!
1$
#2090
0$
#2095
b10 .
b111001 +
1$
#2100
0$
#2105
b1 .
b111010 +
1$
#2110
0$
#2115
b0 .
b111011 +
1$
#2120
0$
#2125
b100 .
0!
b111100 +
1$
#2130
0$
#2135
b11 .
1!
1$
#2140
0$
#2145
b10 .
b111101 +
1$
#2150
0$
#2155
b1 .
b111110 +
1$
#2160
0$
#2165
b0 .
b111111 +
1$
#2170
0$
#2175
b100 .
0!
b1000000 +
1$
#2180
0$
#2185
b11 .
1!
1$
#2190
0$
#2195
b10 .
b1000001 +
1$
#2200
0$
#2205
b1 .
b1000010 +
1$
#2210
0$
#2215
b0 .
b1000011 +
1$
#2220
0$
#2225
b100 .
0!
b1000100 +
1$
#2230
0$
#2235
b11 .
1!
1$
#2240
0$
#2245
b10 .
b1000101 +
1$
#2250
0$
#2255
b1 .
b1000110 +
1$
#2260
0$
#2265
b0 .
b1000111 +
1$
#2270
0$
#2275
b100 .
0!
b1001000 +
1$
#2280
0$
#2285
b11 .
1!
1$
#2290
0$
#2295
b10 .
b1001001 +
1$
#2300
0$
#2305
b1 .
b1001010 +
1$
#2310
0$
#2315
b0 .
b1001011 +
1$
#2320
0$
#2325
b100 .
0!
b1001100 +
1$
#2330
0$
#2335
b11 .
1!
1$
#2340
0$
#2345
b10 .
b1001101 +
1$
#2350
0$
#2355
b1 .
b1001110 +
1$
#2360
0$
#2365
b0 .
b1001111 +
1$
#2370
0$
#2375
b100 .
0!
0'
b1010000 +
1$
#2380
0$
#2385
1$
#2390
0$
#2395
1$
b0 +
#2400
0$
#2405
b11 .
1!
1$
1'
1&
#2410
0$
#2415
b10 .
b1 +
1$
#2420
0$
#2425
b1 .
b10 +
1$
#2430
0$
#2435
b0 .
b11 +
1$
#2440
0$
#2445
b1 -
0!
1"
b100 +
1$
#2450
0$
#2455
b0 -
b1 *
1$
#2460
0$
#2465
b100 .
b10 -
0"
b10 *
1$
#2470
0$
#2475
b11 .
1!
1$
#2480
0$
#2485
b10 .
b101 +
1$
#2490
0$
#2495
b1 .
b110 +
1$
#2500
0$
#2505
b0 .
b111 +
1$
#2510
0$
#2515
b1 -
0!
1"
b1000 +
1$
#2520
0$
#2525
b0 -
b11 *
1$
#2530
0$
#2535
b100 .
b10 -
0"
b100 *
1$
#2540
0$
#2545
b11 .
1!
1$
#2550
0$
#2555
b10 .
b1001 +
1$
#2560
0$
#2565
b1 .
b1010 +
1$
#2570
0$
#2575
b0 .
b1011 +
1$
#2580
0$
#2585
b1 -
0!
1"
b1100 +
1$
#2590
0$
#2595
b0 -
b101 *
1$
#2600
0$
#2605
b100 .
b10 -
0"
b110 *
1$
#2610
0$
#2615
b11 .
1!
1$
#2620
0$
#2625
b10 .
b1101 +
1$
#2630
0$
#2635
b1 .
b1110 +
1$
#2640
0$
#2645
b0 .
b1111 +
1$
#2650
0$
#2655
b1 -
0!
1"
b10000 +
1$
#2660
0$
#2665
b0 -
b111 *
1$
#2670
0$
#2675
b100 .
b10 -
0"
b1000 *
1$
#2680
0$
#2685
b11 .
1!
1$
#2690
0$
#2695
b10 .
b10001 +
1$
#2700
0$
#2705
b1 .
b10010 +
1$
#2710
0$
#2715
b0 .
b10011 +
1$
#2720
0$
#2725
b1 -
0!
1"
b10100 +
1$
#2730
0$
#2735
b0 -
b1001 *
1$
#2740
0$
#2745
b100 .
b10 -
0"
b1010 *
1$
#2750
0$
#2755
b11 .
1!
1$
#2760
0$
#2765
b10 .
b10101 +
1$
#2770
0$
#2775
b1 .
b10110 +
1$
#2780
0$
#2785
b0 .
b10111 +
1$
#2790
0$
#2795
b1 -
0!
1"
b11000 +
1$
#2800
0$
#2805
b0 -
b1011 *
1$
#2810
0$
#2815
b100 .
b10 -
0"
b1100 *
1$
#2820
0$
#2825
b11 .
1!
1$
#2830
0$
#2835
b10 .
b11001 +
1$
#2840
0$
#2845
b1 .
b11010 +
1$
#2850
0$
#2855
b0 .
b11011 +
1$
#2860
0$
#2865
b1 -
0!
1"
b11100 +
1$
#2870
0$
#2875
b0 -
b1101 *
1$
#2880
0$
#2885
b100 .
b10 -
0"
b1110 *
1$
#2890
0$
#2895
b11 .
1!
1$
#2900
0$
#2905
b10 .
b11101 +
1$
#2910
0$
#2915
b1 .
b11110 +
1$
#2920
0$
#2925
b0 .
b11111 +
1$
#2930
0$
#2935
b1 -
0!
1"
b100000 +
1$
#2940
0$
#2945
b0 -
b1111 *
1$
#2950
0$
#2955
b100 .
b10 -
0"
b10000 *
1$
#2960
0$
#2965
b11 .
1!
1$
#2970
0$
#2975
b10 .
b100001 +
1$
#2980
0$
#2985
b1 .
b100010 +
1$
#2990
0$
#2995
b100 .
0!
0'
0&
b100011 +
1$
#3000
0$
#3005
1$
#3010
0$
#3015
1$
b0 +
b0 *
#3020
0$
#3025
0,
1#
1$
1%
#3030
0$
#3035
1,
0#
b1 )
1$
#3040
0$
#3045
0,
1#
1$
#3050
0$
#3055
1,
0#
b10 )
1$
#3060
0$
#3065
0,
1#
1$
#3070
0$
#3075
1,
0#
b11 )
1$
#3080
0$
#3085
0,
1#
1$
#3090
0$
#3095
1,
0#
b100 )
1$
#3100
0$
#3105
0,
1#
1$
#3110
0$
#3115
1,
0#
b101 )
1$
#3120
0$
#3125
0,
1#
1$
#3130
0$
#3135
1,
0#
b110 )
1$
#3140
0$
#3145
0,
1#
1$
#3150
0$
#3155
1,
0#
b111 )
1$
#3160
0$
#3165
0,
1#
1$
#3170
0$
#3175
1,
0#
b1000 )
1$
#3180
0$
#3185
0,
1#
1$
#3190
0$
#3195
1,
0#
b1001 )
1$
#3200
0$
#3205
0,
1#
1$
#3210
0$
#3215
1,
0#
b1010 )
1$
#3220
0$
#3225
0,
1#
1$
#3230
0$
#3235
1,
0#
b1011 )
1$
#3240
0$
#3245
0,
1#
1$
#3250
0$
#3255
1,
0#
b1100 )
1$
#3260
0$
#3265
0,
1#
1$
#3270
0$
#3275
1,
0#
b1101 )
1$
#3280
0$
#3285
0,
1#
1$
#3290
0$
#3295
1,
0#
b1110 )
1$
#3300
0$
#3305
0,
1#
1$
#3310
0$
#3315
1,
0#
b1111 )
1$
#3320
0$
#3325
0,
1#
1$
#3330
0$
#3335
1,
0#
b10000 )
1$
#3340
0$
#3345
0,
1#
1$
#3350
0$
#3355
1,
0#
b10001 )
1$
#3360
0$
#3365
0,
1#
1$
#3370
0$
#3375
1,
0#
b10010 )
1$
#3380
0$
#3385
0,
1#
1$
#3390
0$
#3395
1,
0#
b10011 )
1$
#3400
0$
#3405
0,
1#
1$
#3410
0$
#3415
1,
0#
b10100 )
1$
#3420
0$
#3425
0,
1#
1$
#3430
0$
#3435
1,
0#
b10101 )
1$
#3440
0$
#3445
0,
1#
1$
#3450
0$
#3455
1,
0#
b10110 )
1$
#3460
0$
#3465
0,
1#
1$
#3470
0$
#3475
1,
0#
b10111 )
1$
#3480
0$
#3485
0,
1#
1$
#3490
0$
#3495
1,
0#
b11000 )
1$
#3500
0$
#3505
0,
1#
1$
#3510
0$
#3515
1,
0#
b11001 )
1$
#3520
0$
#3525
0,
1#
1$
#3530
0$
#3535
1,
0#
b11010 )
1$
#3540
0$
#3545
0,
1#
1$
#3550
0$
#3555
1,
0#
b11011 )
1$
#3560
0$
#3565
0,
1#
1$
#3570
0$
#3575
1,
0#
b11100 )
1$
#3580
0$
#3585
0,
1#
1$
#3590
0$
#3595
1,
0#
b11101 )
1$
#3600
0$
#3605
0,
1#
1$
#3610
0$
#3615
1,
0#
0%
b11110 )
1$
#3620
0$
#3625
1$
#3630
0$
#3635
1$
b0 )
