sim/tb_cdc_fifo.vcd
$date
	Sun Jun  7 17:14:02 2026
$end
$version
	Icarus Verilog
$end
$timescale
	1ns
$end
$scope module tb_cdc_fifo $end
$var wire 1 ! wr_ready $end
$var wire 1 " rd_valid $end
$var wire 32 # rd_data [31:0] $end
$var reg 1 $ rd_clk $end
$var reg 1 % rd_ready $end
$var reg 1 & rd_rst $end
$var reg 1 ' wr_clk $end
$var reg 32 ( wr_data [31:0] $end
$var reg 1 ) wr_rst $end
$var reg 1 * wr_valid $end
$var integer 32 + i [31:0] $end
$scope module dut $end
$var wire 1 $ rd_clk $end
$var wire 1 , rd_enb $end
$var wire 1 % rd_ready $end
$var wire 1 & rd_rst $end
$var wire 1 ' wr_clk $end
$var wire 32 - wr_data [31:0] $end
$var wire 1 . wr_enb $end
$var wire 1 ) wr_rst $end
$var wire 1 * wr_valid $end
$var wire 1 ! wr_ready $end
$var wire 1 " rd_valid $end
$var wire 32 / rd_data [31:0] $end
$var wire 1 0 full $end
$var wire 1 1 empty $end
$var wire 5 2 b_wr_ptr [4:0] $end
$var wire 5 3 b_rd_ptr [4:0] $end
$scope module u_async_fifo $end
$var wire 32 4 data_in [31:0] $end
$var wire 1 $ rd_clk $end
$var wire 1 , rd_enb $end
$var wire 1 & rd_rst $end
$var wire 1 ' wr_clk $end
$var wire 1 . wr_enb $end
$var wire 1 ) wr_rst $end
$var wire 5 5 g_wr_ptr_sync [4:0] $end
$var wire 5 6 g_wr_ptr [4:0] $end
$var wire 5 7 g_rd_ptr_sync [4:0] $end
$var wire 5 8 g_rd_ptr [4:0] $end
$var wire 1 0 full $end
$var wire 1 1 empty $end
$var wire 32 9 data_out [31:0] $end
$var wire 5 : b_wr_ptr [4:0] $end
$var wire 5 ; b_rd_ptr [4:0] $end
$scope module F1 $end
$var wire 1 ' clk $end
$var wire 1 ) rst $end
$var wire 5 < d_in [4:0] $end
$var reg 5 = d_out [4:0] $end
$var reg 5 > temp [4:0] $end
$upscope $end
$scope module F2 $end
$var wire 1 $ clk $end
$var wire 1 & rst $end
$var wire 5 ? d_in [4:0] $end
$var reg 5 @ d_out [4:0] $end
$var reg 5 A temp [4:0] $end
$upscope $end
$scope module MEM $end
$var wire 32 B d_in [31:0] $end
$var wire 1 $ rd_clk $end
$var wire 1 , rd_en $end
$var wire 1 ' wr_clk $end
$var wire 1 . wr_en $end
$var wire 5 C wr_ptr [4:0] $end
$var wire 5 D rd_ptr [4:0] $end
$var wire 1 0 full $end
$var wire 1 1 empty $end
$var reg 32 E d_out [31:0] $end
$var integer 32 F j [31:0] $end
$upscope $end
$scope module R_handler $end
$var wire 5 G g_rd_ptr_next [4:0] $end
$var wire 5 H g_wr_ptr_sync [4:0] $end
$var wire 1 $ rd_clk $end
$var wire 1 , rd_en $end
$var wire 1 & rst $end
$var wire 1 I rempty $end
$var wire 5 J b_rd_ptr_next [4:0] $end
$var reg 5 K b_rd_ptr [4:0] $end
$var reg 1 1 empty $end
$var reg 5 L g_rd_ptr [4:0] $end
$upscope $end
$scope module W_handler $end
$var wire 5 M g_rptr_sync [4:0] $end
$var wire 5 N g_wptr_next [4:0] $end
$var wire 1 ) rst $end
$var wire 1 ' wr_clk $end
$var wire 1 . wr_en $end
$var wire 1 O wfull $end
$var wire 5 P b_wptr_next [4:0] $end
$var reg 5 Q b_wptr [4:0] $end
$var reg 1 0 full $end
$var reg 5 R g_wptr [4:0] $end
$upscope $end
$upscope $end
$upscope $end
$upscope $end
$enddefinitions $end
#0
$dumpvars
b0 R
b0 Q
b0 P
0O
b0 N
b0 M
b0 L
b0 K
b0 J
1I
b0 H
b0 G
b10000 F
bx E
b0 D
b0 C
b0 B
b0 A
b0 @
b0 ?
b0 >
b0 =
b0 <
b0 ;
b0 :
bx 9
b0 8
b0 7
b0 6
b0 5
b0 4
b0 3
b0 2
11
00
bx /
0.
b0 -
0,
bx +
0*
1)
b0 (
0'
1&
0%
0$
bx #
0"
1!
$end
#5
1'
#10
0'
#15
1'
#20
0'
1$
#25
1'
#30
0'
#35
1'
#40
0'
0$
0&
0)
#45
1'
#50
0'
#55
1'
#60
b1 N
b1 P
1.
0'
1$
b0 +
1*
#65
b11 N
b1 6
b1 ?
b1 R
b10 P
b1 2
b1 :
b1 C
b1 Q
1'
#70
0'
b1 (
b1 -
b1 4
b1 B
b1 +
#75
b10 N
b11 6
b11 ?
b11 R
b11 P
b10 2
b10 :
b10 C
b10 Q
1'
#80
0'
b10 (
b10 -
b10 4
b10 B
b10 +
0$
#85
b110 N
b10 6
b10 ?
b10 R
b100 P
b11 2
b11 :
b11 C
b11 Q
1'
#90
0'
b11 (
b11 -
b11 4
b11 B
b11 +
#95
b111 N
b110 6
b110 ?
b110 R
b101 P
b100 2
b100 :
b100 C
b100 Q
1'
#100
b110 A
0'
b100 (
b100 -
b100 4
b100 B
b100 +
1$
#105
b101 N
b111 6
b111 ?
b111 R
b110 P
b101 2
b101 :
b101 C
b101 Q
1'
#110
b111 N
b101 P
0.
0'
0*
b101 +
#115
1'
#120
0'
0$
#125
1'
#130
0'
#135
1'
#140
0I
b110 5
b110 @
b110 H
b111 A
0'
1$
#145
1'
#150
0'
#155
1'
#160
0'
0$
#165
1'
#170
0'
#175
1'
#180
b111 5
b111 @
b111 H
1"
01
0'
1$
#185
1'
#190
0'
#195
1'
#200
0'
0$
#205
1'
#210
b1 G
b1 J
1,
0'
1%
#215
1'
#220
b11 G
b0 #
b0 /
b0 9
b0 E
b1 8
b1 <
b1 L
b10 J
b1 3
b1 ;
b1 D
b1 K
0'
1$
#225
b1 >
1'
#230
0'
#235
b1 7
b1 =
b1 M
1'
#240
0'
0$
#245
1'
#250
0'
#255
1'
#260
b10 G
b1 #
b1 /
b1 9
b1 E
b11 8
b11 <
b11 L
b11 J
b10 3
b10 ;
b10 D
b10 K
0'
1$
#265
b11 >
1'
#270
0'
#275
b11 7
b11 =
b11 M
1'
#280
0'
0$
#285
1'
#290
0'
#295
1'
#300
b110 G
b10 #
b10 /
b10 9
b10 E
b10 8
b10 <
b10 L
b100 J
b11 3
b11 ;
b11 D
b11 K
0'
1$
#305
b10 >
1'
#310
0'
#315
b10 7
b10 =
b10 M
1'
#320
0'
0$
#325
1'
#330
0'
#335
1'
#340
1I
b111 G
b11 #
b11 /
b11 9
b11 E
b110 8
b110 <
b110 L
b101 J
b100 3
b100 ;
b100 D
b100 K
0'
1$
#345
b110 >
1'
#350
0'
#355
b110 7
b110 =
b110 M
1'
#360
0'
0$
#365
1'
#370
0'
#375
1'
#380
0,
1I
b111 G
b100 #
b100 /
b100 9
b100 E
0"
11
b111 8
b111 <
b111 L
b101 J
b101 3
b101 ;
b101 D
b101 K
0'
1$
#385
b111 >
1'
#390
0'
#395
b111 7
b111 =
b111 M
1'
#400
0'
0$
#405
1'
#410
0'
0%
#415
1'
#420
0'
1$
#425
1'
#430
b101 N
b110 P
1.
0'
b1010 (
b1010 -
b1010 4
b1010 B
b1010 +
1*
#435
b100 N
b101 6
b101 ?
b101 R
b111 P
b110 2
b110 :
b110 C
b110 Q
1'
#440
0'
b1011 (
b1011 -
b1011 4
b1011 B
b1011 +
0$
#445
b1100 N
b100 6
b100 ?
b100 R
b1000 P
b111 2
b111 :
b111 C
b111 Q
1'
#450
0'
b1100 (
b1100 -
b1100 4
b1100 B
b1100 +
#455
b1101 N
b1100 6
b1100 ?
b1100 R
b1001 P
b1000 2
b1000 :
b1000 C
b1000 Q
1'
#460
b1100 A
0'
b1101 (
b1101 -
b1101 4
b1101 B
b1101 +
1$
#465
b1111 N
b1101 6
b1101 ?
b1101 R
b1010 P
b1001 2
b1001 :
b1001 C
b1001 Q
1'
#470
0'
b1110 (
b1110 -
b1110 4
b1110 B
b1110 +
#475
b1110 N
b1111 6
b1111 ?
b1111 R
b1011 P
b1010 2
b1010 :
b1010 C
b1010 Q
1'
#480
0'
b1111 (
b1111 -
b1111 4
b1111 B
b1111 +
0$
#485
b1010 N
b1110 6
b1110 ?
b1110 R
b1100 P
b1011 2
b1011 :
b1011 C
b1011 Q
1'
#490
0'
b10000 (
b10000 -
b10000 4
b10000 B
b10000 +
#495
b1011 N
b1010 6
b1010 ?
b1010 R
b1101 P
b1100 2
b1100 :
b1100 C
b1100 Q
1'
#500
0I
b1100 5
b1100 @
b1100 H
b1010 A
0'
b10001 (
b10001 -
b10001 4
b10001 B
b10001 +
1$
#505
b1001 N
b1011 6
b1011 ?
b1011 R
b1110 P
b1101 2
b1101 :
b1101 C
b1101 Q
1'
#510
0'
b10010 (
b10010 -
b10010 4
b10010 B
b10010 +
#515
b1000 N
b1001 6
b1001 ?
b1001 R
b1111 P
b1110 2
b1110 :
b1110 C
b1110 Q
1'
#520
0'
b10011 (
b10011 -
b10011 4
b10011 B
b10011 +
0$
#525
b11000 N
b1000 6
b1000 ?
b1000 R
b10000 P
b1111 2
b1111 :
b1111 C
b1111 Q
1'
#530
0O
b1000 N
b1111 P
0.
0'
0*
b10100 +
#535
1'
#540
b1010 5
b1010 @
b1010 H
b1000 A
1"
01
0'
1$
#545
1'
#550
0'
#555
1'
#560
0'
0$
#565
1'
#570
b101 G
b110 J
1,
0'
1%
#575
1'
#580
b100 G
b1010 #
b1010 /
b1010 9
b1010 E
b1000 5
b1000 @
b1000 H
b101 8
b101 <
b101 L
b111 J
b110 3
b110 ;
b110 D
b110 K
0'
1$
#585
b101 >
1'
#590
0'
#595
b101 7
b101 =
b101 M
1'
#600
0'
0$
#605
1'
#610
0'
#615
1'
#620
b1100 G
b1011 #
b1011 /
b1011 9
b1011 E
b100 8
b100 <
b100 L
b1000 J
b111 3
b111 ;
b111 D
b111 K
0'
1$
#625
b100 >
1'
#630
0'
#635
b100 7
b100 =
b100 M
1'
#640
0'
0$
#645
1'
#650
0'
#655
1'
#660
b1101 G
b1100 #
b1100 /
b1100 9
b1100 E
b1100 8
b1100 <
b1100 L
b1001 J
b1000 3
b1000 ;
b1000 D
b1000 K
0'
1$
#665
b1100 >
1'
#670
0'
#675
b1100 7
b1100 =
b1100 M
1'
#680
0'
0$
#685
1'
#690
0'
#695
1'
#700
b1111 G
b1101 #
b1101 /
b1101 9
b1101 E
b1101 8
b1101 <
b1101 L
b1010 J
b1001 3
b1001 ;
b1001 D
b1001 K
0'
1$
#705
b1101 >
1'
#710
0'
#715
b1101 7
b1101 =
b1101 M
1'
#720
0'
0$
#725
1'
#730
0'
#735
1'
#740
b1110 G
b1110 #
b1110 /
b1110 9
b1110 E
b1111 8
b1111 <
b1111 L
b1011 J
b1010 3
b1010 ;
b1010 D
b1010 K
0'
1$
#745
b1111 >
1'
#750
0'
#755
b1111 7
b1111 =
b1111 M
1'
#760
0'
0$
#765
1'
#770
0'
#775
1'
#780
b1010 G
b1111 #
b1111 /
b1111 9
b1111 E
b1110 8
b1110 <
b1110 L
b1100 J
b1011 3
b1011 ;
b1011 D
b1011 K
0'
1$
#785
b1110 >
1'
#790
0'
#795
b1110 7
b1110 =
b1110 M
1'
#800
0'
0$
#805
1'
#810
0'
#815
1'
#820
b1011 G
b10000 #
b10000 /
b10000 9
b10000 E
b1010 8
b1010 <
b1010 L
b1101 J
b1100 3
b1100 ;
b1100 D
b1100 K
0'
1$
#825
b1010 >
1'
#830
0'
#835
b1010 7
b1010 =
b1010 M
1'
#840
0'
0$
#845
1'
#850
0'
#855
1'
#860
0I
b1001 G
b10001 #
b10001 /
b10001 9
b10001 E
b1011 8
b1011 <
b1011 L
b1110 J
b1101 3
b1101 ;
b1101 D
b1101 K
0'
1$
#865
b1011 >
1'
#870
0'
#875
b1011 7
b1011 =
b1011 M
1'
#880
0'
0$
#885
1'
#890
0'
#895
1'
#900
1I
b1000 G
b10010 #
b10010 /
b10010 9
b10010 E
b1001 8
b1001 <
b1001 L
b1111 J
b1110 3
b1110 ;
b1110 D
b1110 K
0'
1$
#905
b1001 >
1'
#910
0'
#915
b1001 7
b1001 =
b1001 M
1'
#920
0'
0$
#925
1'
#930
0'
#935
1'
#940
0,
1I
b1000 G
b10011 #
b10011 /
b10011 9
b10011 E
0"
11
b1000 8
b1000 <
b1000 L
b1111 J
b1111 3
b1111 ;
b1111 D
b1111 K
0'
1$
#945
b1000 >
1'
#950
0'
#955
b1000 7
b1000 =
b1000 M
1'
#960
0'
0$
#965
1'
#970
0O
b11000 N
b10000 P
1.
0'
b1100100 (
b1100100 -
b1100100 4
b1100100 B
b1100100 +
1*
0%
#975
b11001 N
b11000 6
b11000 ?
b11000 R
b10001 P
b10000 2
b10000 :
b10000 C
b10000 Q
1'
#980
b11000 A
0'
b1100101 (
b1100101 -
b1100101 4
b1100101 B
b1100101 +
1$
#985
b11011 N
b11001 6
b11001 ?
b11001 R
b10010 P
b10001 2
b10001 :
b10001 C
b10001 Q
1'
#990
0'
b1100110 (
b1100110 -
b1100110 4
b1100110 B
b1100110 +
#995
b11010 N
b11011 6
b11011 ?
b11011 R
b10011 P
b10010 2
b10010 :
b10010 C
b10010 Q
1'
#1000
0'
b1100111 (
b1100111 -
b1100111 4
b1100111 B
b1100111 +
0$
#1005
b11110 N
b11010 6
b11010 ?
b11010 R
b10100 P
b10011 2
b10011 :
b10011 C
b10011 Q
1'
#1010
0'
b1101000 (
b1101000 -
b1101000 4
b1101000 B
b1101000 +
#1015
b11111 N
b11110 6
b11110 ?
b11110 R
b10101 P
b10100 2
b10100 :
b10100 C
b10100 Q
1'
#1020
0I
b11000 5
b11000 @
b11000 H
b11110 A
0'
b1101001 (
b1101001 -
b1101001 4
b1101001 B
b1101001 +
1$
#1025
b11101 N
b11111 6
b11111 ?
b11111 R
b10110 P
b10101 2
b10101 :
b10101 C
b10101 Q
1'
#1030
0'
b1101010 (
b1101010 -
b1101010 4
b1101010 B
b1101010 +
#1035
b11100 N
b11101 6
b11101 ?
b11101 R
b10111 P
b10110 2
b10110 :
b10110 C
b10110 Q
1'
#1040
0'
b1101011 (
b1101011 -
b1101011 4
b1101011 B
b1101011 +
0$
#1045
b10100 N
b11100 6
b11100 ?
b11100 R
b11000 P
b10111 2
b10111 :
b10111 C
b10111 Q
1'
#1050
0'
b1101100 (
b1101100 -
b1101100 4
b1101100 B
b1101100 +
#1055
b10101 N
b10100 6
b10100 ?
b10100 R
b11001 P
b11000 2
b11000 :
b11000 C
b11000 Q
1'
#1060
b11110 5
b11110 @
b11110 H
b10100 A
1"
01
0'
b1101101 (
b1101101 -
b1101101 4
b1101101 B
b1101101 +
1$
#1065
b10111 N
b10101 6
b10101 ?
b10101 R
b11010 P
b11001 2
b11001 :
b11001 C
b11001 Q
1'
#1070
0'
b1101110 (
b1101110 -
b1101110 4
b1101110 B
b1101110 +
#1075
b10110 N
b10111 6
b10111 ?
b10111 R
b11011 P
b11010 2
b11010 :
b11010 C
b11010 Q
1'
#1080
0'
b1101111 (
b1101111 -
b1101111 4
b1101111 B
b1101111 +
0$
#1085
b10010 N
b10110 6
b10110 ?
b10110 R
b11100 P
b11011 2
b11011 :
b11011 C
b11011 Q
1'
#1090
0'
b1110000 (
b1110000 -
b1110000 4
b1110000 B
b1110000 +
#1095
b10011 N
b10010 6
b10010 ?
b10010 R
b11101 P
b11100 2
b11100 :
b11100 C
b11100 Q
1'
#1100
b10100 5
b10100 @
b10100 H
b10010 A
0'
b1110001 (
b1110001 -
b1110001 4
b1110001 B
b1110001 +
1$
#1105
0O
b10001 N
b10011 6
b10011 ?
b10011 R
b11110 P
b11101 2
b11101 :
b11101 C
b11101 Q
1'
#1110
0'
b1110010 (
b1110010 -
b1110010 4
b1110010 B
b1110010 +
#1115
1O
b10000 N
b10001 6
b10001 ?
b10001 R
b11111 P
b11110 2
b11110 :
b11110 C
b11110 Q
1'
#1120
0'
b1110011 (
b1110011 -
b1110011 4
b1110011 B
b1110011 +
0$
#1125
1O
0.
b10000 N
0!
10
b10000 6
b10000 ?
b10000 R
b11111 P
b11111 2
b11111 :
b11111 C
b11111 Q
1'
#1130
0'
0*
b1110100 +
#1135
1'
#1140
b10010 5
b10010 @
b10010 H
b10000 A
0'
1$
#1145
1'
#1150
0'
#1155
1'
#1160
0'
0$
#1165
1'
#1170
b11000 G
b10000 J
1,
0'
1%
#1175
1'
#1180
b11001 G
b10000 5
b10000 @
b10000 H
b1100100 #
b1100100 /
b1100100 9
b1100100 E
b11000 8
b11000 <
b11000 L
b10001 J
b10000 3
b10000 ;
b10000 D
b10000 K
0'
1$
#1185
b11000 >
1'
#1190
0'
#1195
0O
b11000 7
b11000 =
b11000 M
1'
#1200
0'
0$
#1205
1!
00
1'
#1210
0'
#1215
1'
#1220
b11011 G
b1100101 #
b1100101 /
b1100101 9
b1100101 E
b11001 8
b11001 <
b11001 L
b10010 J
b10001 3
b10001 ;
b10001 D
b10001 K
0'
1$
#1225
b11001 >
1'
#1230
0'
#1235
b11001 7
b11001 =
b11001 M
1'
#1240
0'
0$
#1245
1'
#1250
0'
#1255
1'
#1260
b11010 G
b1100110 #
b1100110 /
b1100110 9
b1100110 E
b11011 8
b11011 <
b11011 L
b10011 J
b10010 3
b10010 ;
b10010 D
b10010 K
0'
1$
#1265
b11011 >
1'
#1270
0'
#1275
b11011 7
b11011 =
b11011 M
1'
#1280
0'
0$
#1285
1'
#1290
0'
#1295
1'
#1300
b11110 G
b1100111 #
b1100111 /
b1100111 9
b1100111 E
b11010 8
b11010 <
b11010 L
b10100 J
b10011 3
b10011 ;
b10011 D
b10011 K
0'
1$
#1305
b11010 >
1'
#1310
0'
#1315
b11010 7
b11010 =
b11010 M
1'
#1320
0'
0$
#1325
1'
#1330
0'
#1335
1'
#1340
b11111 G
b1101000 #
b1101000 /
b1101000 9
b1101000 E
b11110 8
b11110 <
b11110 L
b10101 J
b10100 3
b10100 ;
b10100 D
b10100 K
0'
1$
#1345
b11110 >
1'
#1350
0'
#1355
b11110 7
b11110 =
b11110 M
1'
#1360
0'
0$
#1365
1'
#1370
0'
#1375
1'
#1380
b11101 G
b1101001 #
b1101001 /
b1101001 9
b1101001 E
b11111 8
b11111 <
b11111 L
b10110 J
b10101 3
b10101 ;
b10101 D
b10101 K
0'
1$
#1385
b11111 >
1'
#1390
0'
#1395
b11111 7
b11111 =
b11111 M
1'
#1400
0'
0$
#1405
1'
#1410
0'
#1415
1'
#1420
b11100 G
b1101010 #
b1101010 /
b1101010 9
b1101010 E
b11101 8
b11101 <
b11101 L
b10111 J
b10110 3
b10110 ;
b10110 D
b10110 K
0'
1$
#1425
b11101 >
1'
#1430
0'
#1435
b11101 7
b11101 =
b11101 M
1'
#1440
0'
0$
#1445
1'
#1450
0'
#1455
1'
#1460
b10100 G
b1101011 #
b1101011 /
b1101011 9
b1101011 E
b11100 8
b11100 <
b11100 L
b11000 J
b10111 3
b10111 ;
b10111 D
b10111 K
0'
1$
#1465
b11100 >
1'
#1470
0'
#1475
b11100 7
b11100 =
b11100 M
1'
#1480
0'
0$
#1485
1'
#1490
0'
#1495
1'
#1500
b10101 G
b1101100 #
b1101100 /
b1101100 9
b1101100 E
b10100 8
b10100 <
b10100 L
b11001 J
b11000 3
b11000 ;
b11000 D
b11000 K
0'
1$
#1505
b10100 >
1'
#1510
0'
#1515
b10100 7
b10100 =
b10100 M
1'
#1520
0'
0$
#1525
1'
#1530
0'
#1535
1'
#1540
b10111 G
b1101101 #
b1101101 /
b1101101 9
b1101101 E
b10101 8
b10101 <
b10101 L
b11010 J
b11001 3
b11001 ;
b11001 D
b11001 K
0'
1$
#1545
b10101 >
1'
#1550
0'
#1555
b10101 7
b10101 =
b10101 M
1'
#1560
0'
0$
#1565
1'
#1570
0'
#1575
1'
#1580
b10110 G
b1101110 #
b1101110 /
b1101110 9
b1101110 E
b10111 8
b10111 <
b10111 L
b11011 J
b11010 3
b11010 ;
b11010 D
b11010 K
0'
1$
#1585
b10111 >
1'
#1590
0'
#1595
b10111 7
b10111 =
b10111 M
1'
#1600
0'
0$
#1605
1'
#1610
0'
#1615
1'
#1620
b10010 G
b1101111 #
b1101111 /
b1101111 9
b1101111 E
b10110 8
b10110 <
b10110 L
b11100 J
b11011 3
b11011 ;
b11011 D
b11011 K
0'
1$
#1625
b10110 >
1'
#1630
0'
#1635
b10110 7
b10110 =
b10110 M
1'
#1640
0'
0$
#1645
1'
#1650
0'
#1655
1'
#1660
b10011 G
b1110000 #
b1110000 /
b1110000 9
b1110000 E
b10010 8
b10010 <
b10010 L
b11101 J
b11100 3
b11100 ;
b11100 D
b11100 K
0'
1$
#1665
b10010 >
1'
#1670
0'
#1675
b10010 7
b10010 =
b10010 M
1'
#1680
0'
0$
#1685
1'
#1690
0'
#1695
1'
#1700
0I
b10001 G
b1110001 #
b1110001 /
b1110001 9
b1110001 E
b10011 8
b10011 <
b10011 L
b11110 J
b11101 3
b11101 ;
b11101 D
b11101 K
0'
1$
#1705
b10011 >
1'
#1710
0'
#1715
b10011 7
b10011 =
b10011 M
1'
#1720
0'
0$
#1725
1'
#1730
0'
#1735
1'
#1740
1I
b10000 G
b1110010 #
b1110010 /
b1110010 9
b1110010 E
b10001 8
b10001 <
b10001 L
b11111 J
b11110 3
b11110 ;
b11110 D
b11110 K
0'
1$
#1745
b10001 >
1'
#1750
0'
#1755
b10001 7
b10001 =
b10001 M
1'
#1760
0'
0$
#1765
1'
#1770
0'
#1775
1'
#1780
0,
1I
b10000 G
b1110011 #
b1110011 /
b1110011 9
b1110011 E
0"
11
b10000 8
b10000 <
b10000 L
b11111 J
b11111 3
b11111 ;
b11111 D
b11111 K
0'
1$
#1785
b10000 >
1'
#1790
0'
#1795
b10000 7
b10000 =
b10000 M
1'
#1800
0'
0$
#1805
1'
#1810
0'
#1815
1'
#1820
0'
1$
#1825
1'
#1830
0'
#1835
1'
#1840
0'
0$
#1845
1'
#1850
0'
#1855
1'
#1860
0'
1$
#1865
1'
#1870
0'
#1875
1'
#1880
0'
0$
#1885
1'
#1890
0'
#1895
1'
#1900
0'
1$
#1905
1'
#1910
0'
#1915
1'
#1920
0'
0$
#1925
1'
#1930
0'
#1935
1'
#1940
0'
1$
#1945
1'
#1950
0'
#1955
1'
#1960
0'
0$
#1965
1'
#1970
0O
b0 N
b0 P
1.
0'
b11011110101011011011111011101110 (
b11011110101011011011111011101110 -
b11011110101011011011111011101110 4
b11011110101011011011111011101110 B
1*
0%
#1975
b1 N
b0 6
b0 ?
b0 R
b1 P
b0 2
b0 :
b0 C
b0 Q
1'
#1980
b0 A
0'
b11001010111111101011101010111110 (
b11001010111111101011101010111110 -
b11001010111111101011101010111110 4
b11001010111111101011101010111110 B
1$
#1985
b11 N
b1 6
b1 ?
b1 R
b10 P
b1 2
b1 :
b1 C
b1 Q
1'
#1990
0I
b0 G
b1 N
b0 8
b0 <
b0 L
b0 J
b0 3
b0 ;
b0 D
b0 K
b0 6
b0 ?
b0 R
b1 P
b0 2
b0 :
b0 C
b0 Q
0'
1&
1)
#1995
b0 7
b0 =
b0 M
b0 >
1'
#2000
0'
0$
#2005
1'
#2010
b0 N
b0 P
0.
0'
1%
0*
0&
0)
#2015
1'
#2020
b1 G
b1 J
1,
0I
b0 5
b0 @
b0 H
1"
01
0'
1$
#2025
1'
#2030
0'
#2035
1'
#2040
0'
0$
#2045
1'
#2050
0'
#2055
1'
#2060
b11 G
b11001010111111101011101010111110 #
b11001010111111101011101010111110 /
b11001010111111101011101010111110 9
b11001010111111101011101010111110 E
b1 8
b1 <
b1 L
b10 J
b1 3
b1 ;
b1 D
b1 K
0'
1$
#2065
b1 >
1'
#2070
0'
#2075
b1 7
b1 =
b1 M
1'
#2080
0'
0$
#2085
1'
#2090
0'
#2095
1'
#2100
b10 G
b1100110 #
b1100110 /
b1100110 9
b1100110 E
b11 8
b11 <
b11 L
b11 J
b10 3
b10 ;
b10 D
b10 K
0'
1$
#2105
b11 >
1'
#2110
0'
#2115
b11 7
b11 =
b11 M
1'
#2120
0'
0$
#2125
1'
#2130
0'
#2135
1'
#2140
b110 G
b1100111 #
b1100111 /
b1100111 9
b1100111 E
b10 8
b10 <
b10 L
b100 J
b11 3
b11 ;
b11 D
b11 K
0'
1$
#2145
b10 >
1'
#2150
0'
#2155
b10 7
b10 =
b10 M
1'
#2160
0'
0$
#2165
1'
#2170
0'
#2175
1'
#2180
b111 G
b1101000 #
b1101000 /
b1101000 9
b1101000 E
b110 8
b110 <
b110 L
b101 J
b100 3
b100 ;
b100 D
b100 K
0'
1$
#2185
b110 >
1'
#2190
0'
#2195
b110 7
b110 =
b110 M
1'
